<?xml version="1.0" encoding="utf-8"?>
<!DOCTYPE svg PUBLIC "-//W3C//DTD SVG 1.1//EN" "http://www.w3.org/Graphics/SVG/1.1/DTD/svg11.dtd">
<svg version="1.1" baseProfile="full"
 xmlns="http://www.w3.org/2000/svg"
 xmlns:xlink="http://www.w3.org/1999/xlink"
 xmlns:ev="http://www.w3.org/2001/xml-events" >
<path fill-rule="evenodd"  stroke="rgb( 37, 37, 37 )" stroke-width="2px" stroke-linecap="butt" stroke-linejoin="miter" fill="rgb( 150, 212, 128 )"
 d="M97.000,410.000 C118.539,410.000 136.000,427.461 136.000,449.000 C136.000,470.539 118.539,488.000 97.000,488.000 C75.461,488.000 58.000,470.539 58.000,449.000 C58.000,427.461 75.461,410.000 97.000,410.000 Z"/>
<path fill-rule="evenodd"  fill="rgb( 0, 0, 0 )"
 d="M93.462,477.666 C93.462,477.666 100.962,477.666 100.962,477.666 C100.962,477.666 100.962,437.236 100.962,437.236 C100.962,437.236 93.462,437.236 93.462,437.236 C93.462,437.236 93.462,477.666 93.462,477.666 ZM93.345,421.533 C92.355,422.523 91.861,423.695 91.861,425.049 C91.861,426.508 92.342,427.719 93.306,428.682 C94.295,429.672 95.493,430.166 96.900,430.166 C98.306,430.166 99.503,429.672 100.493,428.682 C101.483,427.692 101.978,426.494 101.978,425.088 C101.978,423.708 101.483,422.523 100.493,421.533 C99.503,420.544 98.332,420.049 96.978,420.049 C95.623,420.049 94.412,420.544 93.345,421.533 C93.345,421.533 93.345,421.533 93.345,421.533 Z"/>
</svg>